<?xml version="1.0" encoding="UTF-8"?>
<svg xmlns="http://www.w3.org/2000/svg" xmlns:xlink="http://www.w3.org/1999/xlink" width="512px" height="512px" viewBox="0 0 512 512" version="1.1">
<defs>
<linearGradient id="linear0" gradientUnits="userSpaceOnUse" x1="154.2" y1="128.04" x2="393.95" y2="193.63" gradientTransform="matrix(1.289673,0,0,1.438202,0,0)">
<stop offset="0" style="stop-color:rgb(66.27451%,65.882353%,65.882353%);stop-opacity:1;"/>
<stop offset="1" style="stop-color:rgb(95.686275%,95.686275%,95.686275%);stop-opacity:1;"/>
</linearGradient>
<linearGradient id="linear1" gradientUnits="userSpaceOnUse" x1="263.5" y1="164.65" x2="86.82" y2="339.49" gradientTransform="matrix(1.289673,0,0,1.438202,0,0)">
<stop offset="0" style="stop-color:rgb(66.27451%,65.882353%,65.882353%);stop-opacity:1;"/>
<stop offset="1" style="stop-color:rgb(95.686275%,95.686275%,95.686275%);stop-opacity:1;"/>
</linearGradient>
<linearGradient id="linear2" gradientUnits="userSpaceOnUse" x1="219.41" y1="114.78" x2="282.49" y2="355.22" gradientTransform="matrix(1.289673,0,0,1.438202,0,0)">
<stop offset="0" style="stop-color:rgb(66.27451%,65.882353%,65.882353%);stop-opacity:1;"/>
<stop offset="1" style="stop-color:rgb(95.686275%,95.686275%,95.686275%);stop-opacity:1;"/>
</linearGradient>
<linearGradient id="linear3" gradientUnits="userSpaceOnUse" x1="242.38" y1="227.75" x2="2.60995" y2="162.16" gradientTransform="matrix(1.289673,0,0,1.438202,0,0)">
<stop offset="0" style="stop-color:rgb(66.27451%,65.882353%,65.882353%);stop-opacity:1;"/>
<stop offset="1" style="stop-color:rgb(95.686275%,95.686275%,95.686275%);stop-opacity:1;"/>
</linearGradient>
<linearGradient id="linear4" gradientUnits="userSpaceOnUse" x1="133.04" y1="191.15" x2="309.74" y2="16.29" gradientTransform="matrix(1.289673,0,0,1.438202,0,0)">
<stop offset="0" style="stop-color:rgb(66.27451%,65.882353%,65.882353%);stop-opacity:1;"/>
<stop offset="1" style="stop-color:rgb(95.686275%,95.686275%,95.686275%);stop-opacity:1;"/>
</linearGradient>
<linearGradient id="linear5" gradientUnits="userSpaceOnUse" x1="177.14" y1="241.02" x2="114.06" y2="0.570013" gradientTransform="matrix(1.289673,0,0,1.438202,0,0)">
<stop offset="0" style="stop-color:rgb(66.27451%,65.882353%,65.882353%);stop-opacity:1;"/>
<stop offset="1" style="stop-color:rgb(95.686275%,95.686275%,95.686275%);stop-opacity:1;"/>
</linearGradient>
</defs>
<g id="surface1">
<path style=" stroke:none;fill-rule:nonzero;fill:url(#linear0);" d="M 503.449219 289.035156 C 503.449219 289.035156 445.75 400.496094 445.738281 400.539062 L 445.363281 401.257812 C 448.894531 382.304688 450.019531 362.46875 448.574219 342.234375 C 445.957031 306.496094 435.355469 273.558594 418.835938 245.542969 C 417.945312 243.992188 416.976562 242.4375 416.007812 240.925781 C 389.777344 199.261719 350.054688 168.355469 305.292969 158.75 C 305.175781 158.71875 305.046875 158.691406 304.90625 158.664062 C 298.636719 157.382812 286.617188 156.679688 286.617188 156.679688 L 242.898438 156.632812 L 220.261719 156.605469 C 218.742188 156.578125 217.257812 156.589844 215.773438 156.605469 C 215.503906 156.605469 215.234375 156.605469 214.960938 156.605469 C 214.664062 156.605469 214.371094 156.605469 214.074219 156.605469 C 213.480469 156.605469 212.898438 156.605469 212.304688 156.664062 C 212.074219 156.691406 211.839844 156.722656 211.609375 156.75 C 210.4375 156.9375 209.300781 157.324219 208.203125 157.8125 L 207.558594 158.128906 C 206.632812 158.621094 205.714844 159.09375 204.863281 159.753906 C 204.941406 159.640625 205.019531 159.539062 205.097656 159.425781 C 234.941406 121.011719 278.8125 98.101562 324.273438 93.582031 C 325.925781 93.410156 327.628906 93.265625 329.277344 93.179688 C 359.304688 91.238281 390.175781 97.46875 419.234375 112.796875 C 435.691406 121.5 450.496094 132.488281 463.457031 145.386719 L 503.460938 222.675781 C 514.101562 243.214844 514.101562 268.511719 503.460938 289.050781 Z M 503.449219 289.035156 "/>
<path style=" stroke:none;fill-rule:nonzero;fill:url(#linear1);" d="M 347.476562 403.1875 C 346.792969 404.867188 346.046875 406.59375 345.296875 408.21875 C 331.792969 438.175781 311.519531 464.882812 285.082031 485.277344 C 270.082031 496.828125 254.117188 505.628906 237.636719 511.710938 L 157.636719 511.710938 C 136.371094 511.710938 116.714844 499.054688 106.074219 478.519531 L 48.351562 367 L 47.988281 366.308594 C 60.949219 379.195312 75.78125 390.183594 92.238281 398.914062 C 121.304688 414.246094 152.167969 420.472656 182.191406 418.53125 C 183.84375 418.445312 185.546875 418.300781 187.195312 418.128906 C 232.65625 413.628906 276.53125 390.714844 306.375 352.289062 C 306.453125 352.171875 306.53125 352.070312 306.621094 351.957031 C 310.734375 346.535156 317.3125 335.273438 317.3125 335.273438 L 339.210938 293.078125 L 350.546875 271.214844 C 351.320312 269.761719 352.082031 268.339844 352.816406 266.886719 C 353.152344 266.238281 353.472656 265.59375 353.820312 264.945312 C 354.003906 264.601562 354.167969 264.082031 354.402344 263.78125 C 354.6875 263.175781 354.867188 262.542969 355.019531 261.882812 C 355.253906 261.234375 355.371094 260.585938 355.472656 259.953125 C 355.628906 259.277344 355.703125 258.617188 355.730469 257.957031 C 355.847656 256.890625 355.886719 255.84375 355.820312 254.777344 C 355.859375 254.90625 355.898438 255.023438 355.9375 255.136719 L 355.949219 255.136719 C 370.859375 303.1875 366.71875 357.003906 347.476562 403.15625 Z M 347.476562 403.1875 "/>
<path style=" stroke:none;fill-rule:nonzero;fill:url(#linear2);" d="M 445.363281 401.257812 L 405.371094 478.519531 C 394.730469 499.054688 375.089844 511.710938 353.808594 511.710938 L 237.621094 511.710938 C 254.117188 505.628906 270.070312 496.828125 285.070312 485.277344 C 311.507812 464.882812 331.78125 438.175781 345.285156 408.21875 C 346.03125 406.578125 346.78125 404.855469 347.464844 403.1875 C 366.691406 357.035156 370.84375 303.214844 355.9375 255.179688 L 355.925781 255.179688 C 355.886719 255.050781 355.847656 254.9375 355.808594 254.804688 L 355.792969 254.804688 C 353.667969 248.117188 348.1875 236.109375 348.1875 236.109375 L 326.351562 193.871094 L 315.054688 171.996094 C 314.320312 170.511719 313.582031 169.074219 312.835938 167.636719 C 312.5 166.988281 312.164062 166.34375 311.816406 165.695312 C 311.636719 165.351562 311.328125 164.917969 311.210938 164.542969 C 310.886719 163.96875 310.5 163.464844 310.050781 162.976562 C 309.664062 162.445312 309.226562 162.011719 308.773438 161.582031 C 308.320312 161.09375 307.859375 160.691406 307.355469 160.332031 C 306.582031 159.683594 305.769531 159.109375 304.90625 158.632812 C 305.035156 158.664062 305.164062 158.691406 305.277344 158.71875 L 305.292969 158.71875 C 350.042969 168.328125 389.765625 199.21875 415.996094 240.898438 C 416.964844 242.410156 417.917969 243.960938 418.820312 245.515625 C 435.34375 273.53125 445.941406 306.464844 448.5625 342.207031 C 450.019531 362.457031 448.882812 382.273438 445.351562 401.230469 Z M 445.363281 401.257812 "/>
<path style=" stroke:none;fill-rule:nonzero;fill:url(#linear3);" d="M 306.605469 351.957031 C 306.515625 352.070312 306.4375 352.171875 306.363281 352.273438 C 276.519531 390.703125 232.644531 413.613281 187.183594 418.128906 C 185.53125 418.300781 183.828125 418.445312 182.179688 418.53125 C 152.15625 420.472656 121.28125 414.246094 92.222656 398.914062 C 75.769531 390.199219 60.9375 379.210938 47.976562 366.308594 L 47.949219 366.28125 L 7.984375 289.035156 C -2.65625 268.496094 -2.65625 243.199219 7.984375 222.664062 L 65.695312 111.171875 L 66.070312 110.441406 C 62.535156 129.394531 61.402344 149.226562 62.859375 169.476562 C 65.476562 205.203125 76.078125 238.136719 92.597656 266.152344 C 93.488281 267.707031 94.457031 269.289062 95.421875 270.785156 C 121.65625 312.433594 161.375 343.355469 206.128906 352.964844 L 206.140625 352.964844 C 206.269531 352.992188 206.398438 353.019531 206.527344 353.035156 C 212.796875 354.316406 224.816406 355.019531 224.816406 355.019531 L 268.535156 355.0625 L 291.167969 355.09375 C 292.691406 355.121094 294.175781 355.121094 295.65625 355.121094 C 296.328125 355.121094 297 355.105469 297.667969 355.105469 C 298.03125 355.105469 298.507812 355.019531 298.867188 355.09375 C 299.476562 355.0625 300.054688 354.933594 300.660156 354.761719 C 301.265625 354.644531 301.835938 354.445312 302.375 354.230469 C 302.984375 354.042969 303.539062 353.796875 304.054688 353.480469 C 304.941406 353.078125 305.792969 352.574219 306.59375 351.957031 Z M 306.605469 351.957031 "/>
<path style=" stroke:none;fill-rule:nonzero;fill:url(#linear4);" d="M 463.445312 145.375 C 450.484375 132.488281 435.675781 121.5 419.222656 112.785156 C 390.152344 97.453125 359.289062 91.226562 329.265625 93.167969 C 327.617188 93.253906 325.914062 93.398438 324.261719 93.570312 C 278.800781 98.070312 234.925781 120.980469 205.082031 159.410156 C 205.007812 159.527344 204.929688 159.625 204.851562 159.742188 L 204.839844 159.742188 C 200.710938 165.175781 194.148438 176.425781 194.148438 176.425781 L 172.25 218.621094 L 160.914062 240.480469 C 160.136719 241.933594 159.378906 243.359375 158.644531 244.8125 C 158.308594 245.457031 157.984375 246.105469 157.636719 246.753906 C 157.457031 247.097656 157.289062 247.617188 157.054688 247.917969 C 156.773438 248.519531 156.59375 249.152344 156.425781 249.816406 C 156.207031 250.464844 156.089844 251.109375 155.984375 251.742188 C 155.832031 252.417969 155.753906 253.082031 155.726562 253.742188 C 155.613281 254.820312 155.574219 255.898438 155.652344 256.992188 C 155.597656 256.847656 155.546875 256.703125 155.507812 256.5625 C 140.585938 208.523438 144.726562 154.691406 163.96875 108.542969 C 164.652344 106.859375 165.402344 105.132812 166.148438 103.507812 C 179.652344 73.550781 199.925781 46.855469 226.363281 26.449219 C 241.363281 14.898438 257.316406 6.097656 273.796875 0.0273438 L 353.808594 0.0273438 C 375.074219 0.0273438 394.730469 12.671875 405.371094 33.207031 L 463.09375 144.726562 L 463.445312 145.402344 Z M 463.445312 145.375 "/>
<path style=" stroke:none;fill-rule:nonzero;fill:url(#linear5);" d="M 163.957031 108.511719 C 144.726562 154.664062 140.574219 208.496094 155.496094 256.519531 C 155.535156 256.675781 155.585938 256.820312 155.636719 256.964844 C 157.777344 263.652344 163.234375 275.589844 163.234375 275.589844 L 185.066406 317.828125 L 196.367188 339.71875 C 197.101562 341.199219 197.835938 342.621094 198.582031 344.074219 C 198.917969 344.722656 199.253906 345.355469 199.601562 346.015625 C 199.78125 346.363281 200.09375 346.78125 200.207031 347.152344 C 200.53125 347.742188 200.917969 348.230469 201.371094 348.722656 C 201.757812 349.265625 202.195312 349.683594 202.644531 350.117188 C 203.097656 350.605469 203.5625 351.007812 204.066406 351.382812 C 204.839844 352.027344 205.664062 352.605469 206.527344 353.0625 C 206.398438 353.050781 206.269531 353.019531 206.140625 352.992188 L 206.128906 352.992188 C 161.375 343.386719 121.65625 312.476562 95.421875 270.8125 C 94.457031 269.304688 93.5 267.734375 92.597656 266.183594 C 76.078125 238.167969 65.476562 205.230469 62.859375 169.507812 C 61.402344 149.242188 62.535156 129.421875 66.070312 110.46875 L 106.0625 33.207031 C 116.703125 12.640625 136.34375 0 157.625 0 L 273.796875 0 C 257.300781 6.070312 241.363281 14.871094 226.363281 26.417969 C 199.925781 46.828125 179.652344 73.519531 166.148438 103.480469 C 165.402344 105.117188 164.652344 106.84375 163.96875 108.511719 Z M 163.957031 108.511719 "/>
</g>
</svg>
